,predict_mean_return,mean_return,predict_std,std
0,-0.0011675479,0.0025543808066770756,0.014268737,0.012818909894068354
1,-0.0011491198,0.002329256297140674,0.014257103,0.01274919503055321
2,-0.0010856651,0.0025130505615877817,0.014313355,0.012691568469933315
3,-0.0010707229,0.0021574492028886665,0.014319718,0.012803316955548472
4,-0.0010891659,0.0021441722140930096,0.01428923,0.012808368322146163
5,-0.0011301273,0.0011105079309020529,0.014284931,0.012945685698850563
6,-0.0011149216,0.0028027097467730293,0.0143575,0.014017997561025284
7,-0.0011398578,0.0023547377889974073,0.014421705,0.013838238497170467
8,-0.0011227373,0.0023179938238004944,0.014553353,0.013836133248546859
9,-0.0011659684,0.002012700400465654,0.014581934,0.014096757795006227
10,-0.0012214156,0.0016614148908623866,0.014575712,0.014232448638061265
11,-0.0012580557,0.0020222101432946418,0.014593594,0.014166500962445561
12,-0.0012887204,0.0014909285201576187,0.014603503,0.014177697482945065
13,-0.0012519816,0.0015394359693939224,0.014577679,0.014075901311403141
14,-0.0011907909,0.0004873166787394153,0.014746472,0.014235307205213868
15,-0.0011190707,0.00040412643324677454,0.014855538,0.014208786763111944
16,-0.0010792464,0.0001699463243821412,0.014783766,0.014103096654431343
17,-0.0010872576,0.0002559651635594359,0.014572501,0.014054818811610687
18,-0.001152249,-0.0013063996621407563,0.014399275,0.013698371163781647
19,-0.0011217557,-0.0026638615361862478,0.014354628,0.011134454714996347
20,-0.0010057874,-0.0027817873820413517,0.014371309,0.011096384522122589
21,-0.0011063907,-0.0023641542850082694,0.014207844,0.011201420820356002
22,-0.0012375815,-0.0024627703089664626,0.014368452,0.011223131042482069
23,-0.0013652379,-0.003132161741897933,0.014639951,0.011038394440382506
24,-0.0013871538,-0.002587414250611586,0.014700256,0.010840129314295085
25,-0.0014107348,-0.0029189386452938082,0.014832474,0.010990988067370392
26,-0.0014720429,-0.002996894670118138,0.014919117,0.010933652503583732
27,-0.0014370559,-0.0028295773102619604,0.014749639,0.011011810617841606
28,-0.0014259843,-0.003077582132434441,0.014503859,0.010987288434578536
29,-0.0014586374,-0.0027754535293473483,0.014237907,0.011096759273246272
30,-0.001516494,-0.00292023770938725,0.014019728,0.011045990223539722
31,-0.0015854891,-0.0025878917812306255,0.013806347,0.011317151128033812
32,-0.0016390663,-0.002316300553045237,0.013605885,0.011309727478303713
33,-0.001696852,-0.0021446360632490446,0.0134989545,0.011340714094492188
34,-0.0017655948,-0.00154055425300207,0.013435084,0.011094713381750602
35,-0.0017850855,-0.0025589848203009437,0.013508804,0.008753821149903961
36,-0.0015421752,-0.002864861342520826,0.013609119,0.00876264349299501
37,-0.0015114341,-0.0029630475742834237,0.01350667,0.008715406917068957
38,-0.0016185865,-0.0024233006827548507,0.013343561,0.008504146481838202
39,-0.0016887626,-0.002083322963925453,0.01340349,0.008447802205029819
40,-0.0017926097,-0.002317384126447809,0.013552304,0.008350423485795348
41,-0.0018010559,-0.002802577047620413,0.013556294,0.008971860647355586
42,-0.0017773705,-0.0019507959701934843,0.013508424,0.007738867973718137
43,-0.0017206287,-0.0013196234551028057,0.013724502,0.007257090736267856
44,-0.0017582476,-0.0013219991224164035,0.013949469,0.007255428060635757
45,-0.001655194,-0.0018127704950613214,0.014014162,0.007427743266821918
46,-0.0015034573,-0.0012005725131532894,0.01396738,0.007779192819292997
47,-0.0014280481,-0.0008650155152066949,0.013814006,0.007115384932812586
48,-0.0013908641,-0.0007261959928451417,0.013759464,0.007191421641585186
49,-0.0014244374,-0.0007491863882560895,0.013741054,0.0071932880226050905
50,-0.0014036903,-0.0013235182421195606,0.013731811,0.007283802052204443
51,-0.0013771262,-0.0010567061687745893,0.013690453,0.007239362588111175
52,-0.0013765162,-0.0007426820743185209,0.01363812,0.0070534649576756816
53,-0.0014032675,-0.0008978866879571214,0.013643339,0.007058824729514018
54,-0.0014159195,-0.0003922470262858191,0.01371257,0.0067260841854572435
55,-0.0014003506,-0.0003907065058392778,0.013813872,0.006727059109888561
56,-0.0013584606,-0.0005890476778608399,0.013908878,0.006663372222259999
57,-0.001308009,-0.0002905205967069282,0.013971057,0.006629360780309738
58,-0.001294787,-0.0006761628314250431,0.013960149,0.00661676918271406
59,-0.001289227,-0.0004288589174948783,0.0139529705,0.006729597511685176
60,-0.0013070991,-0.0014944950414719981,0.013933979,0.0072986864506603515
61,-0.0012969328,-0.0015505428955819587,0.013920918,0.007283581383997486
62,-0.001331049,-0.00169551754104939,0.013863653,0.007247345584232171
63,-0.0013761111,-0.001814730736333854,0.013801847,0.0072040718225639755
64,-0.0014134422,-0.0018478155454556135,0.013757646,0.007172805138039723
65,-0.0014316766,-0.0016960660870194932,0.01370484,0.007097499381199702
66,-0.0014577247,-0.0019336738623713177,0.013676196,0.0071633780618837
67,-0.0014781505,-0.002093759349164482,0.013656087,0.0071269018156690156
68,-0.0014678594,-0.002097241398327841,0.013595365,0.007125198780779957
69,-0.0014561974,-0.0021453654462217117,0.013487808,0.007130770911442991
70,-0.001464,-0.001886983931616777,0.013366785,0.006562321193519005
71,-0.0014662445,-0.002130924458834399,0.013414979,0.006685587905407288
72,-0.0014945241,-0.002121277414525674,0.013449959,0.006691946772446899
73,-0.0014426084,-0.002489950057432899,0.013424512,0.006662899024314975
74,-0.0013909722,-0.002237883562015853,0.01332384,0.006457815390798541
75,-0.0013830336,-0.00296244132838908,0.013232429,0.006015153018214097
76,-0.0013752449,-0.0029243497789529812,0.013184492,0.005969753068779592
77,-0.0013857055,-0.0032437042833212597,0.013156138,0.005775225613953401
78,-0.001429366,-0.0031283090225767466,0.013129488,0.00584157325678763
79,-0.0014607599,-0.004749347476697273,0.013114616,0.0116175238936175
80,-0.0014912179,-0.00472188281132573,0.013148323,0.011633782216826464
81,-0.0015042219,-0.00461629783366978,0.013208561,0.01168788453946275
82,-0.0014912654,-0.004505124665015836,0.013239358,0.011716091900825128
83,-0.0014844565,-0.0046016596892834724,0.013239436,0.011669394902485707
84,-0.0014748238,-0.005271044487452483,0.013228878,0.011730353074294124
85,-0.0014656773,-0.005194939883820382,0.013194948,0.01176421351890685
86,-0.0014814269,-0.005326800786128495,0.0131383315,0.011688434270176486
87,-0.0015041446,-0.005187730851933795,0.013088994,0.011705765056280746
88,-0.001532902,-0.00533323870116046,0.013067331,0.011587709460770633
89,-0.0015404085,-0.004639673689230856,0.013054941,0.01127432856005796
90,-0.0015188241,-0.004900432717702046,0.013167262,0.011261120431339004
91,-0.0015405249,-0.004771607775727888,0.013259709,0.011317050022558247
92,-0.0015123021,-0.004594223705632978,0.0132877305,0.011418925070827257
93,-0.0014796155,-0.004925003644617335,0.0132449865,0.011291865009124878
94,-0.0014489954,-0.00485663027652126,0.0131648965,0.011309986788792019
95,-0.0014554849,-0.004922403028223903,0.013062634,0.011329443937718743
96,-0.0014920346,-0.005207310502985737,0.012992609,0.011376990601072546
97,-0.0015261462,-0.005423817644521558,0.012966484,0.011309871192220851
98,-0.0018202132,0.0006137438409940081,0.011848975,0.012430559273012039
99,-0.0018258588,8.02027352726e-05,0.011873372,0.012501361209219552
100,-0.0017474415,0.0006801232568425739,0.011914615,0.011996965174379122
101,-0.0016295761,-0.00022417357718458933,0.011927478,0.011863779454417002
102,-0.0015096981,-0.0005551609280259501,0.012008689,0.011753974576203821
103,-0.0014520166,-0.001566545935857956,0.012001421,0.01165095325592744
104,-0.0014516255,-0.0003079897389392344,0.011930618,0.012251275662382401
105,-0.0014688438,-0.0012043126267647574,0.011864614,0.011837504462906928
106,-0.0014720438,-0.0014212373454908491,0.012019247,0.01168494054892121
107,-0.0015177,-0.0018298956513281878,0.012054548,0.011926255718038436
108,-0.0015636152,-0.0018135258717519405,0.012080472,0.011930502523378857
109,-0.0015946897,-0.001341224412523057,0.012181647,0.011881495014415077
110,-0.0016117413,-0.0015676530902666373,0.0123293325,0.011866277566539577
111,-0.001590631,-0.0018501817876533243,0.012450121,0.012107560022828675
112,-0.0015684096,-0.0009035897527718962,0.012510199,0.011378681375269099
113,-0.0015441272,-0.001214757771235165,0.012736484,0.011112028311874623
114,-0.001428606,-0.0011602763805082996,0.012895338,0.011144488365657011
115,-0.0013314383,-0.000535408722112804,0.01290708,0.010768566965443076
116,-0.0013104603,-0.0018694053226507245,0.012867115,0.011290819916499937
117,-0.001316064,-0.003216525084343845,0.012868185,0.00920185571336258
118,-0.0011841832,-0.0035763903023499767,0.01300874,0.009270171054343112
119,-0.001263381,-0.003397334508838256,0.012911014,0.00925122598886705
120,-0.001411981,-0.0036930789597356692,0.012931265,0.008996000037955657
121,-0.0015284074,-0.003873347432503162,0.013038255,0.009066063639774443
122,-0.0016025044,-0.0033686379637890103,0.013129249,0.009079392791483782
123,-0.0016546883,-0.0034319177018542557,0.013315424,0.009071107113620797
124,-0.0016690185,-0.0033283947556438033,0.013431419,0.00915315069829806
125,-0.001627665,-0.0033648611156730235,0.01341477,0.009145328744289
126,-0.0015961668,-0.003943889246602973,0.013320953,0.009602859023340444
127,-0.0015965858,-0.0030409977715029606,0.013199154,0.009934794857676874
128,-0.0016144747,-0.002495261615025308,0.013164531,0.010030750130554725
129,-0.0016606664,-0.0022866062076713316,0.01316385,0.010128342244074112
130,-0.0016537877,-0.0023631042032194517,0.013133712,0.01020605250534918
131,-0.0016199881,-0.0021835912200700272,0.013123058,0.010269067515018908
132,-0.0016075205,-0.0012587417862956302,0.013080534,0.01032084392462849
133,-0.0015669037,-0.0021384059707663947,0.013100993,0.009224561728202166
134,-0.001421772,-0.0024318380335270357,0.0132083,0.009559603669125755
135,-0.0013786769,-0.0027457382225169486,0.013223521,0.009506212747954823
136,-0.0014531985,-0.002649993524435669,0.013140649,0.009399253060731232
137,-0.001496911,-0.0027778748209753147,0.013175722,0.009367307553947246
138,-0.0015464881,-0.0036410340743737264,0.013243977,0.009853642159305613
139,-0.0015407195,-0.00387403848579832,0.013281021,0.009941132486933051
140,-0.001538354,-0.003382291457630896,0.013267629,0.009685208454026982
141,-0.0015347311,-0.0034348810809607293,0.013328314,0.009649914885113318
142,-0.0015120031,-0.0035359410935095663,0.013390198,0.009587308225177588
143,-0.0014614211,-0.0039405888859672935,0.013391845,0.00941639609411424
144,-0.0014276663,-0.0034412068291352713,0.013310276,0.010094013363047803
145,-0.0014426885,-0.002776490796788376,0.013188429,0.009241817658275081
146,-0.0014186064,-0.0024993338660162494,0.01327331,0.00923937846290096
147,-0.0014831154,-0.0021620897071528682,0.013406023,0.009121944582409532
148,-0.0014755027,-0.002116546495149053,0.013519935,0.009126923416672518
149,-0.0014064722,-0.0020252460945037187,0.013566848,0.009159639523283965
150,-0.0013192063,-0.0017737401903171056,0.013559803,0.009038261880234714
151,-0.0012709815,-0.001887367024513975,0.013500411,0.008984566223721263
152,-0.0012418525,-0.0018791019054953816,0.013452668,0.008983453841069381
153,-0.0012371587,-0.002236374529014029,0.0134039,0.008901909695466507
154,-0.0012419717,-0.0021440313037240613,0.013356041,0.008918532272826542
155,-0.0012737066,-0.0013487054432418338,0.013309423,0.00835354176695357
156,-0.0012853667,-0.0018386487860400245,0.013365362,0.007881159885510674
157,-0.0012180554,-0.0019051170829812638,0.013551205,0.00781318903883067
158,-0.001194573,-0.00240894718836643,0.013635166,0.007810657665494279
159,-0.0012126612,-0.0017997610555014305,0.01357802,0.0076086245199876385
160,-0.0012543453,-0.0020689266539040017,0.0135592595,0.0075412447097341325
161,-0.0012873821,-0.0022076545259907755,0.01361458,0.00730171141885769
162,-0.0012539681,-0.001976356970697531,0.013646446,0.007391428899987363
163,-0.0012828503,-0.0013603540894954037,0.013564244,0.006826604347340151
164,-0.001321042,-0.0016259083981662239,0.01358597,0.007139037441948072
165,-0.0013677673,-0.0012671186575714034,0.013660777,0.006881607016808098
166,-0.0013703201,-0.0012464578558330631,0.013720788,0.00687927859278103
167,-0.0013228338,-0.0007821271679817915,0.013725843,0.005884067393808563
168,-0.0012570173,-0.0004065518199311155,0.013770778,0.005565798362409633
169,-0.0012330003,-0.000731156421148328,0.013789125,0.005892469175218253
170,-0.0011387374,-0.001057539906388204,0.013823215,0.005991743130828508
171,-0.0010272134,-0.001154482556566334,0.013813674,0.005983311400510067
172,-0.00097612944,-0.0012601745232836184,0.013724625,0.006093099437996191
173,-0.000992394,-0.00202956016545013,0.013606522,0.005124213416481379
174,-0.0009709811,-0.0017327500837439498,0.013674393,0.0051688411853698735
175,-0.0010353131,-0.0005114747211007942,0.013658583,0.008811863771465474
176,-0.001112259,-0.0008052977359746202,0.013686705,0.008953334346019673
177,-0.0011750013,-0.0011549780849829058,0.013778314,0.009137753997543916
178,-0.0012082625,-0.0009493664671198804,0.013887655,0.009286851685824115
179,-0.00121029,-0.0006395931089855979,0.013989337,0.00938287281292959
180,-0.0012165587,-0.0005219822805289175,0.014050107,0.009420699741255636
181,-0.0012117904,-0.0005289923308522519,0.0140877515,0.009422631647956141
182,-0.0012151115,-0.0009277559899099256,0.014093615,0.009864653905814393
183,-0.0012247832,-0.0011429925571263583,0.014088102,0.0098959744164988
184,-0.0012157243,-0.0016788198950562685,0.014070287,0.01003498036743727
185,-0.0011927988,-0.0016091753523616065,0.014015086,0.010045846438426504
186,-0.0012010839,-0.0018450509632798652,0.013915651,0.009967255435092559
187,-0.0012179138,-0.0014244049127535795,0.013818301,0.009893084264509543
188,-0.0012547877,-0.0012553184249225278,0.0137618035,0.010034602786375945
189,-0.0012878496,-0.0012648639939963672,0.013744514,0.010037444532363368
190,-0.0013136892,-0.002168007147744773,0.013726987,0.010327424315673574
191,-0.0013085986,-0.0024410406962464106,0.013704609,0.01026263460096046
192,-0.0013195081,-0.0024302993204648824,0.0136437565,0.010266494632391671
193,-0.0013601938,-0.002012751275500973,0.013569266,0.010053675021073296
194,-0.0014012838,-0.002648004991953233,0.013614964,0.010563088455899173
195,-0.0014508367,-0.0036173240797812683,0.013690382,0.01170192163391894
196,-0.0018642191,0.0018996739267659515,0.012149375,0.01258956911039774
197,-0.0018319543,0.0018851388596503938,0.012104686,0.012608744868142677
198,-0.0018093875,0.0014662454700491703,0.012094736,0.012705524810490514
199,-0.0017500464,0.0017094678371489048,0.012084559,0.012469552553656955
200,-0.0016619898,0.0009892507848240973,0.01206544,0.012510002807243197
201,-0.0016002171,0.0005374285841933668,0.012055092,0.012455985310621137
202,-0.0015611323,-0.000617446180684799,0.012016833,0.011660244110310445
203,-0.001518447,0.0006674347409670801,0.012030572,0.012235156986602382
204,-0.00152581,-0.0003981446712125402,0.0119712725,0.011323674810075651
205,-0.0015089046,-0.0010414348298099258,0.012161903,0.010977471467944084
206,-0.0015802104,-0.0006831999649073994,0.012164198,0.010856928757327237
207,-0.0016188333,-0.0007906349297483059,0.012247443,0.01084466131919343
208,-0.0016553942,-0.00038482540900009675,0.012445811,0.010714508103275138
209,-0.0016742256,-0.0005351627279523564,0.012604177,0.01064584854215109
210,-0.0016197143,-0.00025070021453904004,0.012671672,0.010293983259875534
211,-0.0015887655,-0.00014570132456525781,0.012744606,0.010329292273470998
212,-0.0015715435,-0.0006504866285828716,0.012744412,0.010270914895119958
213,-0.0014871098,-0.0011550586131714217,0.01261279,0.010460396004406966
214,-0.0014639115,-0.0010034210993439187,0.012403242,0.010374823659345027
215,-0.0015068073,-0.0016081697538656542,0.012243923,0.010303527104911182
216,-0.0015571648,-0.0040561996905588114,0.012128286,0.009656217164091676
217,-0.0013892362,-0.004052805182299993,0.012164738,0.009656736047730987
218,-0.0014352668,-0.0038953982578141724,0.01205609,0.009679572783148477
219,-0.0015835324,-0.004528961941973279,0.012088798,0.009525856332362262
220,-0.00168835,-0.005046278430083612,0.012156963,0.010096187535588462
221,-0.0017519556,-0.004729862622150215,0.012250323,0.010148493511650173
222,-0.0018100934,-0.004831123248816378,0.012416016,0.010126789091989236
223,-0.0018175477,-0.0052497759468528955,0.012493685,0.009770765063733334
224,-0.001741685,-0.005103360086569642,0.012435555,0.009838639255280234
225,-0.0017149672,-0.005657262442763514,0.012321562,0.010073210173457258
226,-0.0017433586,-0.005109316580304508,0.012207888,0.010014534394750318
227,-0.0017719883,-0.004925040547772828,0.012219712,0.010023439823463062
228,-0.0018279478,-0.004620088723990426,0.012262072,0.010102463384828219
229,-0.0018280968,-0.004266767916462652,0.012285765,0.010095053299208456
230,-0.0018009981,-0.003994225583337856,0.012310199,0.010198961987234996
231,-0.0017642258,-0.003536360276509207,0.012311067,0.01027495807444088
232,-0.0017123017,-0.004208979128165072,0.012311544,0.008976825185579502
233,-0.0015350468,-0.0038472352068400265,0.012418419,0.009129356028759437
234,-0.001490728,-0.0040607868858776475,0.012386207,0.009211262745717307
235,-0.0015674103,-0.004019532602041763,0.012295842,0.009236386434119476
236,-0.0016399212,-0.003965823735003304,0.012288906,0.009258481033432431
237,-0.001681596,-0.0044082614711950805,0.01230431,0.009271827921764671
238,-0.0016935822,-0.0045665894281530115,0.0123253465,0.009196153964966158
239,-0.0016897386,-0.004402680684776159,0.012332186,0.009160807243781537
240,-0.0016877856,-0.00437757775177274,0.012362868,0.009187521624298301
241,-0.001668592,-0.003734276348593786,0.012399785,0.009669219359365377
242,-0.0016547795,-0.0033074649344392534,0.012412943,0.009564978786054341
243,-0.0016538249,-0.0024295649674077103,0.012462214,0.010562560879478189
244,-0.0016439278,-0.001945546602691643,0.0125131905,0.010577171994567298
245,-0.0016076872,-0.0008054089373352724,0.012554757,0.008346559428489428
246,-0.0014756443,-0.000780253060978654,0.012874749,0.008342117812884721
247,-0.0014329199,-0.0008670963372269285,0.013108008,0.008350447691676664
248,-0.0012659263,-0.0005355995502517461,0.013302825,0.008115186148721079
249,-0.0011278,0.0001216377742627766,0.013315186,0.006940045545680211
250,-0.0010346016,-6.643626832686569e-05,0.013311826,0.006980321287090976
251,-0.00097026303,-9.213424189581032e-05,0.013403218,0.006997246036466916
252,-0.0008877171,-9.126348940675885e-05,0.013510764,0.006996880266573867
253,-0.00083160866,-0.0002944858581251279,0.013518576,0.007039435423905847
254,-0.00080506783,0.00038203120725960137,0.013555191,0.006224097108862733
255,-0.00079243165,0.0003607684774870861,0.013585098,0.006221110950926451
256,-0.00076467916,0.000705484636681749,0.013744257,0.006367879377823428
257,-0.00075297896,0.00015502603152474896,0.013913736,0.006904388351265674
258,-0.0007222658,0.0003320847722115636,0.014032684,0.006978335161127241
259,-0.0007240176,0.00013395822383574987,0.0141046345,0.006965068591531128
260,-0.0007342668,0.00010803926245508487,0.014161419,0.006949567315342299
261,-0.0007640999,-2.604278500253431e-05,0.014199838,0.006902926728990734
262,-0.0008105356,-0.00027975723068835465,0.014207698,0.006850312752581399
263,-0.00086168014,-2.9974333189577123e-05,0.014202327,0.006593619143760497
264,-0.0009368332,-0.00027671711680859833,0.014185499,0.0066493049168701935
265,-0.0009539537,-0.0004911321745795112,0.01425641,0.006724558333083147
266,-0.0009648055,-4.622948538114057e-06,0.014273286,0.006451508305613242
267,-0.0009892071,3.841684639322076e-05,0.014243845,0.006438264760892107
268,-0.0009881379,8.0758562836686e-06,0.014236957,0.006460105055316063
269,-0.0009778216,-0.00037598793032559915,0.014199041,0.006459161455808928
270,-0.00092796516,-0.0008003059285351523,0.014145002,0.0059988845470493445
271,-0.0008740993,-0.0008411107530272395,0.0140747875,0.005994450670038659
272,-0.0009218268,-0.0018783393073113746,0.013894223,0.00451839513300366
273,-0.00092230923,-0.002118072827734589,0.013859674,0.004312533950483415
274,-0.0010233121,-0.0021030172814297666,0.013740636,0.004311131203086091
275,-0.0011342494,-0.0021664718926709516,0.013715684,0.004320814612328177
276,-0.0012226654,-0.0018586204684555372,0.013829727,0.004580199138444342
277,-0.0012722528,-0.0016526221075321922,0.013973802,0.004727211952016815
278,-0.0012840657,-0.0006386301163858093,0.01408989,0.006922541673211719
279,-0.0012804205,-8.28193331659338e-06,0.014160488,0.007407728437779856
280,-0.0012765117,0.00021969543969583015,0.014196493,0.007353468475333928
281,-0.0012764605,-3.802525628522193e-05,0.014206685,0.007594350520317114
282,-0.0012773825,-8.784529195954103e-05,0.014188826,0.0076297214697315496
283,-0.0012822403,-0.0008254958264667148,0.014161758,0.00840201995880416
284,-0.001285688,-0.0010149887165178625,0.014114227,0.008423495173940225
285,-0.0012941584,-0.0011004510882323317,0.014055423,0.008339669346091294
286,-0.0013131099,-0.000689603383777001,0.0139871985,0.00797749633074778
287,-0.0013267901,-0.0007380272052743715,0.014030244,0.007942075582006844
288,-0.0014001392,-0.0007210543861784941,0.014088582,0.007939389302761895
289,-0.0014361804,-0.0008370826574068765,0.014140803,0.007895991865099278
290,-0.0014667744,-0.0010116470878543604,0.014161631,0.007923051336442983
291,-0.0014911899,-0.0008781524865074243,0.01417125,0.007930476170060503
292,-0.0015247716,-0.0008498364530835289,0.0141885355,0.007923342473459187
293,-0.001559128,-0.0011808039061812607,0.014218774,0.008301837159191255
294,-0.0015841043,-0.0012048891972087016,0.014257997,0.00831659367610389
295,-0.0013770917,0.00019004540130109081,0.012721844,0.012228583636352187
296,-0.0013122642,0.0003509308208229826,0.012882769,0.0120191482461448
297,-0.0012018923,-0.0004540179033718008,0.013039686,0.012116318223109837
298,-0.0009795055,2.3659407314869202e-05,0.013296988,0.011886996478617825
299,-0.0008382499,-0.0006106186122698111,0.013410501,0.011420456212017026
300,-0.0006882949,-0.0007174810635131418,0.013571229,0.011425185087781715
301,-0.0007176278,-0.0018759597700651455,0.013598755,0.011523015317556212
302,-0.0007609958,-0.0001037666355319483,0.0136400685,0.01292376497347832
303,-0.00084861927,-0.0006986640944406145,0.013652518,0.012350156244625455
304,-0.00079143606,-0.0009987982808745382,0.013984248,0.012194816075959241
305,-0.0008832989,-0.0006939623966256959,0.014131997,0.012051506166588169
306,-0.0009762356,-0.0007511492628162293,0.014178421,0.012035680406869484
307,-0.0010114629,-0.0003356407624473553,0.014335297,0.011883931460336892
308,-0.0010664128,-0.0003431551344401,0.014442198,0.011881113311105702
309,-0.0010319576,-2.731887848359461e-05,0.014528051,0.01160752038522764
310,-0.0010381099,0.00030497003780863573,0.014542267,0.011580898929015902
311,-0.0010387441,0.0004185438767197592,0.014530055,0.011624382426398036
312,-0.0009801146,0.0005424737435818237,0.014481232,0.011670428622849456
313,-0.00093621016,0.0009828677462814584,0.014350172,0.011303411814095594
314,-0.00094567705,0.00020658110863542702,0.014202416,0.01157292337085813
315,-0.0009538289,-0.0015493542301283827,0.014156058,0.010030566411305255
316,-0.00075589865,-0.0014611147474698322,0.014382962,0.009962065763795347
317,-0.0007911362,-0.0014077721331067256,0.014291871,0.009963082566064686
318,-0.00096561294,-0.0018329126014773667,0.014291007,0.00992668970769701
319,-0.0010850476,-0.0022527319012313157,0.014380068,0.010107899393661104
320,-0.0011643935,-0.0017570086455515476,0.014455151,0.009884580798423989
321,-0.0012141671,-0.0021079680503884447,0.014633782,0.010016758576081282
322,-0.0012393659,-0.0026349354728930708,0.014804795,0.009972819684411525
323,-0.0011913972,-0.0024658329773453915,0.014852405,0.01003168448586473
324,-0.0011735056,-0.002922279183958694,0.014808543,0.010266536360196867
325,-0.0011953842,-0.002439590014226678,0.014737204,0.010121621292275177
326,-0.001229451,-0.001902841355241968,0.014754735,0.00994566693495921
327,-0.0012895698,-0.001666411409842231,0.014854081,0.010101067252306983
328,-0.0012917863,-0.0016881080133004417,0.0149103515,0.010100737080512394
329,-0.0012523606,-0.0014994222434474723,0.0149137825,0.010132187893165973
330,-0.0012387745,-0.0006771087274274487,0.014867898,0.009612997408063829
331,-0.0012211204,-0.0018799077923673025,0.0149477385,0.006919435918391708
332,-0.0009889295,-0.001840484690089285,0.01521514,0.00694987191806389
333,-0.0009934558,-0.0019283703242640115,0.015273932,0.0069296433532377525
334,-0.0011303248,-0.0017744596953472016,0.015162937,0.006979018107176456
335,-0.0012681717,-0.0017738027101830375,0.01516518,0.0069793544597121365
336,-0.0013726773,-0.0020325361281401466,0.015205853,0.007001750654481279
337,-0.0014310824,-0.0025157204848890898,0.015227921,0.007064205428107309
338,-0.0014546122,-0.002323622623164109,0.0151987225,0.007057915900329795
339,-0.0014748313,-0.002662652543873675,0.015177291,0.006975979348501966
340,-0.001487121,-0.002864984668644354,0.015096083,0.006789410033477182
341,-0.0014779186,-0.003354391802601557,0.014932707,0.006602494674395988
342,-0.0014855685,-0.002926161481596776,0.014709927,0.007073087219740605
343,-0.0015276708,-0.00245095412171022,0.014518287,0.0067222708931835165
344,-0.0015793499,-0.0018287345261047425,0.01451271,0.006140107383038231
345,-0.0016540848,-0.00162909180854632,0.014644675,0.006034994116790609
346,-0.0016893288,-0.0017113417570634028,0.014697909,0.006034994505788179
347,-0.0016271649,-0.0014019385045436971,0.01463728,0.005985946836066946
348,-0.0015548207,-0.0011777091826044412,0.014535226,0.00567674830434626
349,-0.0015219562,-0.0013431578322080715,0.01444301,0.005685898794175421
350,-0.0015082471,-0.001105978404806954,0.014323249,0.0054215663750151535
351,-0.0014701914,-0.0008936274306392774,0.014248453,0.005209348365846554
352,-0.0014725383,-0.0009760184159350258,0.014170274,0.005159914099796956
353,-0.001451225,-0.0005437713458578858,0.014114998,0.0044793314120003145
354,-0.0014015036,-0.000693842854898941,0.014107116,0.004486063212417502
355,-0.0013954518,-0.0006114258396985164,0.014076393,0.0045668431814830796
356,-0.0013700081,-0.0013591934599551274,0.014064573,0.0048709202046109176
357,-0.0013500052,-0.001074289389816459,0.014019351,0.005078780945535289
358,-0.0013757246,-0.0014150202688275374,0.013940088,0.005142698569158432
359,-0.0014198981,-0.0016014876789964216,0.013880685,0.005004855896158949
360,-0.0014543543,-0.0013787076356540104,0.013846122,0.005180398994488776
361,-0.0014892714,-0.002120504866441794,0.013804086,0.005891756102474281
362,-0.0015045358,-0.0021137582686910138,0.0137645155,0.0058924657858781294
363,-0.0015204847,-0.0021210942419984937,0.013710108,0.005886601888414757
364,-0.0015211077,-0.002282263830497704,0.013635799,0.005842483546456296
365,-0.0015177894,-0.0019611745689796876,0.0135250315,0.005873053342335318
366,-0.0015288573,-0.0015593737593067802,0.013416484,0.0056879157487062775
367,-0.0015489534,-0.0015282753087523747,0.01335863,0.005700005750528937
368,-0.0015352787,-0.001342099746678844,0.013282254,0.005644357479558471
369,-0.0015086206,-0.0013415039252461848,0.013180103,0.0056445521344877314
370,-0.0014804564,-0.0016811159627762604,0.01304622,0.006301174489769031
371,-0.0014669476,-0.0019795806179444503,0.012926474,0.005904736252770831
372,-0.0014235247,-0.002236942993642996,0.012828916,0.006009356147412809
373,-0.0014227349,-0.0023107885087425674,0.012702711,0.005980321732582878
374,-0.0014645196,-0.0016143990488918082,0.012566291,0.0070978303434354375
375,-0.0015128432,-0.0022688493557702924,0.0124867335,0.00803072416281985
376,-0.0015536584,-0.002163515044658871,0.012458667,0.008108505141185534
377,-0.0015663523,-0.001647515170846155,0.01246167,0.008341459331405392
378,-0.0015721498,-0.001354339785740744,0.0124762505,0.008406335672465265
379,-0.0015761219,-0.0015622383045362748,0.012508839,0.008541462376428183
380,-0.0015643854,-0.002010459068615017,0.012545962,0.008953420930712616
381,-0.0015425067,-0.002157876177935606,0.012568049,0.008939416039804447
382,-0.0015087305,-0.002600630559495722,0.012567796,0.009235122979445395
383,-0.0014884286,-0.0023591314081422374,0.012540359,0.009315822711904597
384,-0.0014882339,-0.002425515866762762,0.012506418,0.00926953744160993
385,-0.001477181,-0.0019672462925619566,0.012487702,0.009018337814615057
386,-0.0014734836,-0.002061838062477877,0.012506891,0.008941294130052648
387,-0.001466616,-0.002278768599647389,0.012558542,0.009142225192248119
388,-0.0014652386,-0.002402737054526301,0.0125897825,0.009142891670113661
389,-0.0014717197,-0.0030721965067674693,0.012600217,0.009245082482403638
390,-0.001449327,-0.002311696464900906,0.01261415,0.008905527082462433
391,-0.0014289711,-0.0026740641954289,0.012668751,0.009080074302914114
392,-0.0014503142,-0.0035197190364997665,0.012743764,0.009717800689607373
393,-0.0014201067,-0.003982468807280899,0.0127995685,0.010006826118881549
394,-0.0016614469,0.0001410473043455904,0.012758687,0.01131305277954502
395,-0.0015690792,0.0001618747027237935,0.012735035,0.011288882480268653
396,-0.001511775,-0.00013972409536387205,0.012682989,0.011204074582156994
397,-0.0014472492,0.00019904377710835495,0.012674246,0.01094136440289712
398,-0.0013848059,-0.0005682525669362747,0.0126586035,0.010926289544041937
399,-0.0013475977,-0.0003379507734492746,0.012671381,0.01086958360745974
400,-0.0013501421,-0.0011146307492732044,0.012656696,0.01021400156991273
401,-0.0013044579,0.000163086114376872,0.012743764,0.011499928637067855
402,-0.0013445299,-0.0011713930423991239,0.0127430335,0.011472662706919816
403,-0.0013263812,-0.0015290468726255957,0.01286196,0.01128365808232601
404,-0.0013873111,-0.001028675988246205,0.012881674,0.011060696164527067
405,-0.001429447,-0.0006054456139580371,0.012944542,0.011338439215777586
406,-0.0014689676,-0.0005631161360812837,0.013107028,0.011323252479602013
407,-0.0014847256,-0.0010865774035481973,0.013202749,0.010984629031844982
408,-0.0013730302,-0.0006332560129997638,0.013243005,0.010775642019443884
409,-0.0013517011,-0.0006789474529937562,0.013207693,0.010781942233096163
410,-0.0013773255,-0.0007261691023338873,0.013151683,0.010757823399951145
411,-0.0013575451,-0.0008028242654648713,0.013054829,0.01072041025155285
412,-0.0013458533,-0.0003234612778658012,0.012900479,0.010495743972611868
413,-0.00137226,-0.001062268026068841,0.012791894,0.01066075967006523
414,-0.0014010947,-0.0019548193865858575,0.012732126,0.00959510487471572
415,-0.0013091173,-0.0023903462219437115,0.012713522,0.009498587684102503
416,-0.0013546655,-0.002406518002115485,0.012556478,0.009491602652509442
417,-0.0014586914,-0.002490401367257097,0.012440108,0.009510597559186679
418,-0.001556485,-0.002819334440103826,0.012457073,0.009838404088487625
419,-0.0016325982,-0.002489043144602249,0.012579661,0.009276853121659613
420,-0.0016592601,-0.002603316027435224,0.012931146,0.009312758181629915
421,-0.0016752612,-0.0026991852762094887,0.013180923,0.009211745439263506
422,-0.0015369225,-0.002436238049203875,0.013232864,0.009215627413752835
423,-0.0014567496,-0.0025428563509507815,0.013174467,0.009264131419110982
424,-0.0014632223,-0.001973196220813267,0.013067417,0.009155800880715818
425,-0.0014854493,-0.00179590992567968,0.013029143,0.009218687291176746
426,-0.0015128832,-0.0016541010900014868,0.013000071,0.009225573288998246
427,-0.0015040431,-0.0011923071999005498,0.0129683465,0.00906956446513523
428,-0.0014950978,-0.001176245057495404,0.012954943,0.009072705323523143
429,-0.0014936412,-0.0011482967329156486,0.0129602775,0.009066867003838495
430,-0.0014735581,-0.002045125093034898,0.012968503,0.007089918456954578
431,-0.0013010288,-0.0014627446936758108,0.013149969,0.006236354128967298
432,-0.0012247898,-0.0012744726929408594,0.013250966,0.006340785338023116
433,-0.0013392363,-0.0013933516993615998,0.013334818,0.006325619316202991
434,-0.0014102338,-0.0019474351980635035,0.013413921,0.0057503991375794546
435,-0.0013982942,-0.0019079113731965002,0.013467919,0.005740461574304996
436,-0.001425514,-0.0019583133642259933,0.01345142,0.005742699573369485
437,-0.0014702687,-0.002051887157036452,0.013445392,0.0057170136907965
438,-0.0014963401,-0.0020153080320097693,0.013438899,0.00571575692343537
439,-0.0015133498,-0.002065562406958566,0.013416015,0.005667879710317425
440,-0.001506879,-0.002610192689442656,0.013363719,0.005899469226477896
441,-0.0014999863,-0.002278264928120616,0.013268232,0.006394129413319765
442,-0.0015128795,-0.0018381712533089539,0.013146915,0.006008445189637548
443,-0.0015348308,-0.0018647301973644546,0.01312834,0.006014434971073513
444,-0.0015798165,-0.0015838084568091505,0.013133522,0.005983036128923847
445,-0.0015843483,-0.0018106295526381599,0.013133138,0.005993425972907372
446,-0.0015591206,-0.0014520188173376969,0.013091933,0.006060544588987482
447,-0.0015367372,-0.0007577744253720406,0.013038259,0.005360206072892075
448,-0.0015281904,-0.0003966028181747317,0.013062179,0.004789693777253537
449,-0.0015467172,-1.5927457705113145e-05,0.013144042,0.004681725282711677
450,-0.0015147282,-0.0005145351664827834,0.0132278055,0.004853226519481696
451,-0.0014016125,-0.0006316038141218424,0.013291098,0.004846928353624384
452,-0.0013189903,-0.0003632283883467235,0.013276562,0.004629569044294682
453,-0.0013052924,-0.0006406910444967184,0.013193287,0.004580283817181859
454,-0.001326968,-0.00027185009686174917,0.013163086,0.005323718425520735
455,-0.0013502836,-0.0008079352154088297,0.013159439,0.005960401763817496
456,-0.0013877554,-0.0007521268306303179,0.013135955,0.005997893827919734
457,-0.0014255773,-0.0005690005458965076,0.013137143,0.006125465890344325
458,-0.0014581401,-0.00047981647522082703,0.013155188,0.006113862344026095
459,-0.001483269,-0.0007079739465558621,0.013185486,0.006118550578702354
460,-0.0014824327,-0.0005438924392735867,0.013218563,0.006125951961822179
461,-0.0014826301,-0.0006374578852923666,0.013222657,0.006062933702468128
462,-0.0014595855,-0.000612283749222344,0.013199247,0.006057393670234413
463,-0.0014580889,-0.000480993997001924,0.013135605,0.0060303487306451265
464,-0.0014716703,-0.00036481408057512386,0.013064828,0.006017527906303763
465,-0.0014821012,-0.00039186538579834236,0.013001353,0.006031126583081383
466,-0.0014840895,-0.0007119180587609531,0.0129343085,0.006348805370446285
467,-0.001478618,-0.0006212170738425274,0.012857191,0.0063530786991575425
468,-0.0014719209,-0.0010938355016971444,0.012771685,0.006619399789703818
469,-0.0014600521,-0.0006100262644873699,0.012680072,0.0062500986236952065
470,-0.001461707,-0.000882525244520222,0.012632426,0.005877361668693481
471,-0.0014270069,-0.0008289870517658248,0.0126345605,0.005884037425333991
472,-0.0014262227,-0.0009828919250799008,0.012585167,0.006014554026962817
473,-0.0014631934,-0.000817764683847751,0.012512151,0.006154987996480722
474,-0.0014942903,-5.637996589474645e-05,0.012483649,0.006906774279138929
475,-0.0015203338,3.903148630428009e-05,0.012477338,0.006992796421285607
476,-0.0015206458,0.0002659368749258934,0.012486659,0.007209154765386994
477,-0.001514513,-0.0004194102045656722,0.012468748,0.008387110495772569
478,-0.0015305793,-0.0008744690484748183,0.012434542,0.008495136273260184
479,-0.0015421975,-0.0006480636371839411,0.012418196,0.00835502242137923
480,-0.001559536,-0.0008824597532675366,0.012431316,0.00848912031365373
481,-0.0015815627,-0.0009922216465358957,0.012465477,0.008502038546726615
482,-0.0015723174,-0.0011052444483158762,0.012480501,0.008561386637375193
483,-0.001561786,-0.0014955446887880974,0.012468994,0.008066913418214907
484,-0.0014829999,-0.0009692386025330356,0.012468234,0.007656508025478851
485,-0.0014593387,-0.0010102308804066757,0.012467511,0.007632611073725665
486,-0.001503719,-0.001269104525362024,0.012468256,0.007510158322830875
487,-0.0015101321,-0.0009496667358715671,0.012444001,0.007758956734031206
488,-0.0015360974,-0.001121973373568035,0.012373671,0.00788413156632153
489,-0.0015787585,-0.0011806113512194691,0.012328148,0.007866232913452979
490,-0.0016076751,-0.0011400240541575577,0.01230808,0.00788632539567755
491,-0.0016181096,-0.001382980750501863,0.01227238,0.00800693528384871
492,-0.0016331328,-0.00138832525741794,0.012225747,0.008005923711173958
493,-0.0010300186,-0.0016988246474999148,0.021465246,0.02718859479338734
494,-0.0008260356,-0.0008508395966150733,0.022341808,0.026903519691645332
495,-0.0008297609,-0.001130721778121752,0.022778079,0.02696878324022189
496,-0.0005617505,0.00023657270855503078,0.02296843,0.0266660956612324
497,-0.00010997336,-0.0017777415297295335,0.023209853,0.025944394818058405
498,0.00033993926,-0.0030610348668168204,0.023339316,0.026022309682332958
499,0.0004493231,-0.005639291530235863,0.02337841,0.025864779134616853
500,0.00022034626,-0.002010308599310338,0.023071267,0.028934238223331715
501,0.00033467915,-0.003950765327903984,0.023301259,0.02802793070547325
502,0.0002565775,-0.0060432443037594305,0.023577893,0.028975508396177657
503,-0.0001451578,-0.007371220450491567,0.023459334,0.028249936707132686
504,-0.0003556367,-0.009030928404985938,0.023264283,0.02878753045485499
505,-0.0005496163,-0.013733199397626485,0.023077764,0.03908140700944032
506,-0.00062741246,-0.013840633062746575,0.023341917,0.03904240080359922
507,-0.000720446,-0.012225526438768397,0.023331927,0.03905183601870607
508,-0.0007357085,-0.012399418177640028,0.023831483,0.038983808721497155
509,-0.00074292906,-0.012119499529026299,0.023651525,0.03907333711220089
510,-0.0006728377,-0.012304770768928552,0.023061773,0.03903689763184448
511,-0.0006449232,-0.010922630151000123,0.022354376,0.039843010349567054
512,-0.0006608069,-0.011594210345750335,0.021740269,0.03985953325156073
513,-0.0007394757,-0.01353732433999375,0.021124834,0.037055196760238246
514,-0.00015440024,-0.011730937589855826,0.020867024,0.035566467171503455
515,0.001195875,-0.011080646517541643,0.022657514,0.03573457570553747
516,0.00035737362,-0.011826758329219323,0.02337351,0.03562233053044455
517,-7.248577e-05,-0.011234036032181979,0.023294125,0.03545996452529827
518,-0.00020618737,-0.011522885603499452,0.023581985,0.035363349161622405
519,-0.0003898181,-0.012084862562758456,0.02351056,0.0352916937533123
520,-0.0004177168,-0.012343996198980469,0.0232919,0.035199864631083835
521,-0.000456566,-0.011643616443355688,0.02295284,0.035225285724845845
522,-0.0004297411,-0.012072944303390492,0.022921164,0.03547192420013511
523,-0.00050047785,-0.011493032754252527,0.023110712,0.03584976952024981
524,-0.0005738102,-0.010822776550767231,0.023078289,0.036038326101471965
525,-0.00051897485,-0.011416352670135991,0.023109417,0.035761602333329125
526,-0.000465082,-0.009793517127867694,0.02294038,0.03637937869831787
527,-0.00034420472,-0.008868131868409011,0.023057736,0.036384610414193885
528,-0.00037739892,-0.007731598584627196,0.023226846,0.035882113428772094
529,-0.00029939972,-0.009927238638793568,0.023869764,0.032687475383456316
530,0.0008606855,-0.006696710843245673,0.024962,0.0362666835629763
531,0.0010655476,-0.0048734486702093,0.025625486,0.035446296797130204
532,0.0010340875,-0.004349882711092865,0.026214272,0.035466708774283304
533,0.00063138455,-0.0035789934341067214,0.026530694,0.0348754953151524
534,0.0004571015,0.00175035011844917,0.0271332,0.020231606931798644
535,0.0022614691,0.0019866107693483777,0.032794174,0.02023046818705505
536,0.0024165,0.0013724124671923145,0.034815423,0.020229813472425178
537,0.0036499072,0.0012538060183277465,0.035784848,0.020248806053107037
538,0.0048045283,0.0014365464339671174,0.03476558,0.020296944800910044
539,0.005233344,0.001005338466895575,0.03293667,0.02062339552493403
540,0.00507081,0.0011014662673423028,0.030937457,0.02077240262884629
541,0.0048843785,0.0007932353919477361,0.029989127,0.021188706286269926
542,0.0040953523,-0.00038449700096915095,0.028452346,0.02144244034687846
543,0.0037328852,-0.0002742369548049693,0.02804511,0.021370918415608595
544,0.0028889994,-0.000771832756229534,0.02755223,0.021365379812522938
545,0.0025512683,-0.00015880879429742354,0.027647397,0.02113424476767846
546,0.0018817722,-0.0006577066643985221,0.027493618,0.021597656221494267
547,0.0015145969,-0.0007170476063803955,0.027477374,0.021609899673899213
548,0.0012840801,-0.00017200069400107092,0.02739437,0.021419521467910218
549,0.0009857677,2.5889608257728872e-05,0.027000606,0.021410237251249156
550,0.00088392245,-0.00032694659680695287,0.026542481,0.021505095913572875
551,0.0007700329,0.001241036818543702,0.025960604,0.02030795723144564
552,0.0006103122,0.0007834964741257123,0.02514239,0.02003986853979293
553,0.00089435885,0.0018165625091579136,0.02503554,0.021182109814754872
554,0.0007733046,0.0015001014867405702,0.024639599,0.021333428303367683
555,0.000562137,0.0015928181515901616,0.023748793,0.02145006127549976
556,0.0005053757,0.00047075417462191506,0.023503674,0.022144018719999225
557,0.00013699755,0.0003909100563107712,0.022900824,0.022176982472831126
558,-0.00014290353,0.0036564780952253557,0.022420716,0.02914011159488667
559,-0.0002769744,0.0011089306635236923,0.022451151,0.025665127806655842
560,0.0004982827,-0.0002582255078326331,0.023886226,0.026489094341319342
561,0.0001627882,-0.00040057663005372684,0.023542546,0.026474730438650895
562,-6.582355e-05,0.0008113888194474381,0.023518132,0.02640532673881465
563,-0.0002064472,0.0006293537965786451,0.024034739,0.02640603511212816
564,-0.0002677166,0.0003232414529492518,0.024583656,0.026402610809153303
565,-0.00024388451,0.0022388947801776533,0.02467375,0.02781446921280583
566,-0.00023658946,0.0031984592095328666,0.024687748,0.02808680344265449
567,-0.00023967586,0.0035436380606773525,0.024620952,0.02822375077838822
568,-0.00017913431,0.004384022938056555,0.024286494,0.02785855549914679
569,-0.00010570092,0.0027046424616009933,0.024319496,0.027511168616568406
570,-3.9296225e-05,0.0029082674027996257,0.023941487,0.027274535775305205
571,0.00029828306,0.003947470828234372,0.024447555,0.026890383079229977
572,-6.072223e-06,0.003935682599781046,0.02501339,0.026897760202766696
573,-0.00022899266,0.002751133196572658,0.025465777,0.028147146288160875
574,-0.0002815863,0.0029927179858388847,0.025842419,0.02815886736679263
575,-0.0002491735,0.00446548773012297,0.026086273,0.027657222294470495
576,-7.125549e-06,0.004013210852490515,0.026883319,0.02793778052775472
577,-8.421298e-05,0.003421278867693351,0.027320273,0.028201996683686267
578,-4.415959e-05,0.0032111459025684274,0.02768179,0.02823698625294098
579,2.9820949e-06,0.0028651571801018446,0.027952697,0.028475722635840535
580,6.995909e-05,0.0022424602869317387,0.028387282,0.028561694094199917
581,-2.7630478e-05,0.002424036554761081,0.028520826,0.028601768329302283
582,-0.000104023144,0.0003792633283414339,0.028652996,0.028061172852104882
583,-0.00018873531,0.00020242459137840974,0.028399698,0.028162805838960515
584,-0.00012770202,-1.9677252250861515e-06,0.028860424,0.027968135644550602
585,-0.0003748145,0.0009756420129327877,0.028550657,0.02743575723206719
586,-0.00023858808,0.0018786907993154594,0.029397754,0.027507479460891833
587,-0.00049443915,-0.0012158614675589782,0.029762816,0.019781398425969213
588,0.0008919593,-0.0010063833880857012,0.02912773,0.01984361407424575
589,0.00090754405,-0.0011577857388265912,0.029015979,0.020123638977528054
590,0.0007984368,-0.001619082000632777,0.030173464,0.020244686773587532
591,0.00015681144,-0.0012835727038108,0.030299116,0.020629519235405305
